{
    "name": "StatSystem",
    "references": [
        "GUID:7b4ef5aa56e14f04e8611d38a3b76868"
    ],
    "includePlatforms": [],
    "excludePlatforms": [],
    "allowUnsafeCode": false,
    "overrideReferences": false,
    "precompiledReferences": [],
    "autoReferenced": true,
    "defineConstraints": [],
    "versionDefines": []
}